Python Open Education Resource: Analogous R “Solution”
…
(3) What proportion of dual enrolled patients were prescribed an opioid? Similarly, what proportion of “VA-only” patients?

va_cms_df 

## # A tibble: 808 x 18
## # Rowwise: 
##       SSN VisitDate_VA Medication_VA   Age Height Weight Duration_Days_VA
##     <int> <chr>        <chr>         <dbl>  <dbl>  <dbl>            <dbl>
##  1 1.12e8 2019-05-18   acetaminophen    73   182.  103.                14
##  2 1.13e8 2019-02-03   tramadol         79   176.  107.                32
##  3 1.13e8 2018-05-19   tramadol         70   179.  115.                28
##  4 1.13e8 2018-10-14   buprenorphine    39   170.   88.3               40
##  5 1.15e8 2018-01-09   buprenorphine    60   173.   85.3               53
##  6 1.16e8 2019-07-04   dihydrocodei~    36   172.   82.6               56
##  7 1.17e8 2019-02-23   tramadol         61   175.  101.                14
##  8 1.17e8 2019-03-02   acetaminophen    79   185.  126.                31
##  9 1.21e8 2019-09-15   gabapentin       41   168.  103.                54
## 10 1.22e8 2019-10-01   tramadol         74   169.   97.1               35
## # ... with 798 more rows, and 11 more variables: Dose_Mg_Recalc_VA <dbl>,
## #   Opioid_VA <dbl>, MME_VA <dbl>, VisitDate_CMS <chr>, Medication_CMS <chr>,
## #   Duration_Recalc_CMS <dbl>, Dose_Mg_CMS <dbl>, Opioid_CMS <dbl>,
## #   MME_CMS <dbl>, Dual_Enrollment <dbl>, MME_Total <dbl>
…
